{
    "nativeSymbol": "SGB",
    "nativeFtsoDecimals": 5,
    "wrappedNativeName": "Wrapped Songbird",
    "wrappedNativeSymbol": "WSGB",
    "stateConnectorAddress": "0x1000000000000000000000000000000000000001",
    "flareDaemonAddress": "0x1000000000000000000000000000000000000002",
    "priceSubmitterAddress": "0x1000000000000000000000000000000000000003",
    "distributionTreasuryAddress": "0x1000000000000000000000000000000000000005",
    "deployerPrivateKey": "<use .env: DEPLOYER_PRIVATE_KEY>",
    "genesisGovernancePrivateKey": "<use .env: GENESIS_GOVERNANCE_PRIVATE_KEY>",
    "governancePrivateKey": "<use .env: GOVERNANCE_PRIVATE_KEY>",
    "governancePublicKey": "<use .env: GOVERNANCE_PUBLIC_KEY>",
    "burnAddress": "0x0000000000000000000000000000000000000000",
    "totalNativeSupplyNAT": 100000000000,
    "totalFoundationSupplyNAT": 15000000000,
    "scheduledInflationPercentageBIPS": [1000, 800, 600],
    "rewardEpochDurationSeconds": 540,
    "revealEpochDurationSeconds": 90,
    "priceEpochDurationSeconds": 180,
    "rewardEpochsStartDelayPriceEpochs": 3,
    "votePowerIntervalFraction": 4,
    "defaultVoterWhitelistSize": 100,
    "flareDaemonGasExceededHoldoffBlocks": 100,
    "maxVotePowerNatThresholdFraction": 10,
    "maxVotePowerAssetThresholdFraction": 10,
    "lowAssetThresholdUSDDec5": 200000000,
    "highAssetThresholdUSDDec5": 3000000000,
    "highAssetTurnoutThresholdBIPS": 100,
    "lowNatTurnoutThresholdBIPS": 500,
    "priceDeviationThresholdBIPS": 10000,
    "trustedAddresses": [
        "0xc783df8a850f42e7f7e57013759c285caa701eb6",
        "0xead9c93b79ae7c1591b1fb5323bd777e86e150d4",
        "0xe5904695748fe4a84b40b3fc79de2277660bd1d3",
        "0x92561f28ec438ee9831d00d1d59fbdc981b762b2",
        "0x2ffd013aaa7b5a7da93336c2251075202b33fb2b"
    ],
    "rewardFeePercentageUpdateOffsetEpochs": 3,
    "defaultRewardFeePercentageBIPS": 0,
    "ftsoRewardExpiryOffsetDays": 30,
    "initialWnatPriceUSDDec5": 0,
    "priceEpochCyclicBufferSize": 10,
    "inflationReceivers": ["FtsoRewardManager"],
    "inflationSharingBIPS": [10000],
    "inflationTopUpTypes": [0],
    "inflationTopUpFactorsx100": [300],
    "inflationGasLimit": 2000000,
    "ftsoManagerGasLimit": 40000000,
    "deployDistributionContract": true,
    "deployDummyXAssetTokensAndMinters": false,
    "deployNATFtso": false,
    "NATMultiAssets": ["XRP", "LTC", "DOGE"],
    "assets": [
        {
            "assetSymbol": "XRP",
            "assetDecimals": 6,
            "ftsoDecimals": 5,
            "xAssetName": "sAsset XRP",
            "xAssetSymbol": "sXRP",            
            "dummyAssetMinterMax": 7000000000,
            "initialPriceUSDDec5": 0
        },
        {
            "assetSymbol": "LTC",
            "assetDecimals": 8,
            "ftsoDecimals": 5,
            "xAssetName": "sAsset Litecoin",
            "xAssetSymbol": "sLTC",            
            "dummyAssetMinterMax": 4000000000,
            "initialPriceUSDDec5": 0
        },
        {
            "assetSymbol": "XLM",
            "assetDecimals": 6,
            "ftsoDecimals": 5,
            "xAssetName": "sAsset XLM (Lumen)",
            "xAssetSymbol": "sXLM",            
            "dummyAssetMinterMax": 7000000000,
            "initialPriceUSDDec5": 0
        },
        {
            "assetSymbol": "DOGE",
            "assetDecimals": 8,
            "ftsoDecimals": 5,
            "xAssetName": "sAsset Dogecoin",
            "xAssetSymbol": "sDOGE",            
            "dummyAssetMinterMax": 13000000000000,
            "initialPriceUSDDec5": 0
        },
        {
            "assetSymbol": "ADA",
            "assetDecimals": 8,
            "ftsoDecimals": 5,
            "xAssetName": "sAsset ADA (Cardano)",
            "xAssetSymbol": "sADA",            
            "dummyAssetMinterMax": 45000000000,
            "initialPriceUSDDec5": 0
        },
        {
            "assetSymbol": "ALGO",
            "assetDecimals": 8,
            "ftsoDecimals": 5,
            "xAssetName": "sAsset Algorand",
            "xAssetSymbol": "sALGO",         
            "dummyAssetMinterMax": 5000000000,
            "initialPriceUSDDec5": 0
        },
        {
            "assetSymbol": "BCH",
            "assetDecimals": 8,
            "ftsoDecimals": 5,
            "xAssetName": "sAsset Bitcoin Cash",
            "xAssetSymbol": "sBCH",            
            "dummyAssetMinterMax": 21000000000,
            "initialPriceUSDDec5": 0
        },
        {
            "assetSymbol": "DGB",
            "assetDecimals": 8,
            "ftsoDecimals": 5,
            "xAssetName": "sAsset Digibyte",
            "xAssetSymbol": "sDGB",         
            "dummyAssetMinterMax": 10000000000,
            "initialPriceUSDDec5": 0
        },
        {
            "assetSymbol": "BTC",
            "assetDecimals": 6,
            "ftsoDecimals": 5,
            "xAssetName": "sAsset BTC",
            "xAssetSymbol": "sBTC",            
            "dummyAssetMinterMax": 7000000000,
            "initialPriceUSDDec5": 0
        },
        {
            "assetSymbol": "ETH",
            "assetDecimals": 18,
            "ftsoDecimals": 5,
            "xAssetName": "sAsset ETH",
            "xAssetSymbol": "sETH",            
            "dummyAssetMinterMax": 10000000000,
            "initialPriceUSDDec5": 0
        },
        {
            "assetSymbol": "FIL",
            "assetDecimals": 18,
            "ftsoDecimals": 5,
            "xAssetName": "sAsset FIL",
            "xAssetSymbol": "sFIL",            
            "dummyAssetMinterMax": 10000000000,
            "initialPriceUSDDec5": 0
        }
    ]
}
